…
```
## -- Conflicts ------------------------------------------ tidyverse_conflicts() --
## x dplyr::filter() masks stats::filter()
## x dplyr::lag()    masks stats::lag()
```

```r
T1%>%filter(miejsce%>%between(1,3))
```

```
## # A tibble: 168 x 8
##    olimpiada miejsce imie      nazwisko    klasa szkola miasto       wojewodztwo
##        <dbl>   <dbl> <chr>     <chr>       <chr> <chr>  <chr>        <chr>      
##  1         1       1 Witold    Bohdanowicz <NA>  <NA>   Zyrardow     mazowieckie
##  2         1       2 Andrzej   Ehrenfeucht <NA>  <NA>   Lodz         lodzkie    
##  3         1       3 Stanislaw Basinski    <NA>  <NA>   Dabrowa Gor~ slaskie    
##  4         2       1 Andrzej   Schinzel    <NA>  <NA>   Sandomierz   swietokrzy~
##  5         2       2 Cezary    Bowszyc     <NA>  <NA>   Wabrzezno    kujawsko-p~
##  6         2       3 Wiktor    Galazka     <NA>  <NA>   Garwolin     mazowieckie
##  7         3       1 Jerzy     Browkin     <NA>  <NA>   Warszawa     mazowieckie
##  8         3       2 Edward    Jozefowicz  <NA>  <NA>   Lodz         lodzkie    
##  9         3       3 Jacek     Kudrewicz   <NA>  <NA>   Warszawa     mazowieckie
## 10         4       1 Wieslaw   Szlenk      <NA>  <NA>   Warszawa     mazowieckie
## # ... with 158 more rows
```
…
